…
library(dplyr)
library(tidyr)
library(tibble)

# Convert the toy wide matrix to long format
vm_long <- as.data.frame(vm) %>%
  rownames_to_column(var = "plot") %>%
  pivot_longer(
    cols = -plot,
    names_to = "species",
    values_to = "value"
  )

vm_long
#> # A tibble: 64 × 3
#>    plot  species value
#>    <chr> <chr>   <dbl>
#>  1 plot1 sp1        60
#>  2 plot1 sp2        50
#>  3 plot1 sp3        40
#>  4 plot1 sp4        30
#>  5 plot1 sp5         5
#>  6 plot1 sp6         0
#>  7 plot1 sp7        10
#>  8 plot1 sp8         0
#>  9 plot2 sp1        55
#> 10 plot2 sp2        45
#> # ℹ 54 more rows
…
